{
    "KPlugin": {
        "Authors": [
            {
                "Email": "kexi@kde.org",
                "Name": "Kexi Team",
                "Name[ast]": "L'equipu Kexi",
                "Name[ca@valencia]": "L'equip del Kexi",
                "Name[ca]": "L'equip del Kexi",
                "Name[cs]": "Tým Kexi",
                "Name[de]": "Kexi-Team",
                "Name[el]": "Ομάδα Kexi",
                "Name[es]": "El equipo de Kexi",
                "Name[fi]": "Kexi-työryhmä",
                "Name[fr]": "L'équipe Kexi",
                "Name[gl]": "Equipo de Kexi",
                "Name[ia]": "Equipa de Kexi",
                "Name[it]": "La squadra di Kexi",
                "Name[nl]": "Het team van Kexi",
                "Name[pl]": "Zespół Kexi",
                "Name[pt]": "Equipa do Kexi",
                "Name[pt_BR]": "Equipe do Kexi",
                "Name[sk]": "Tím Kexi",
                "Name[sv]": "Kexi-gruppen",
                "Name[tr]": "Kexi Ekibi",
                "Name[uk]": "Команда Kexi",
                "Name[x-test]": "xxKexi Teamxx"
            }
        ],
        "Category": "",
        "Dependencies": [],
        "Description": "KDb driver for handling xBase databases",
        "Description[ast]": "Controladora KDb pa remanar bases de datos xBase",
        "Description[ca@valencia]": "Controlador del KDb per a gestionar bases de dades xBase",
        "Description[ca]": "Controlador del KDb per a gestionar bases de dades xBase",
        "Description[cs]": "Ovladač KDb pro práci s databázemi xBase",
        "Description[de]": "KDb-Treiber für xBase",
        "Description[el]": "KDb oδηγός για χειρισμό βάσεων δεδομένων xBase",
        "Description[es]": "Controlador de KDb para manejar bases de datos xBase",
        "Description[fi]": "KDb-ajuri xBase-tietokantojen käsittelyyn",
        "Description[fr]": "Pilote KDb de gestion des bases de données xBase",
        "Description[gl]": "Controlador de KDb para manexar bases de datos xBase.",
        "Description[ia]": "Driver de KDb per manear bases de datos de xBase",
        "Description[it]": "Driver KDb per la gestione di banche dati xBase",
        "Description[nl]": "KDb-stuurprogramma for behandeling van xBase databases",
        "Description[pl]": "Sterownik KDb do obsługi baz danych xBase",
        "Description[pt]": "Controlador do KDb para lidar com bases de dados xBase",
        "Description[pt_BR]": "Driver do KDb para lidar com bancos de dados xBase",
        "Description[sk]": "KDb ovládač na spracovanie databáz xBase",
        "Description[sv]": "Kdb-drivrutin för att hantera xBase-databaser",
        "Description[tr]": "xBase veritabanlarını kullanabilmek için KDb sürücüsü",
        "Description[uk]": "Драйвер KDb для роботи з базами даних xBase",
        "Description[x-test]": "xxKDb driver for handling xBase databasesxx",
        "EnabledByDefault": true,
        "Icon": "",
        "Id": "org.kde.kdb.xbase",
        "License": "LGPL",
        "MimeTypes": [],
        "Name": "xBase",
        "Name[x-test]": "xxxBasexx",
        "ServiceTypes": [
            "KDb/Driver"
        ],
        "Version": "3.1",
        "Website": "http://kexi-project.org"
    },
    "X-KDb-FileBased": "true",
    "X-KDb-ImportingEnabled": "false"
}
